{"count":102,"next":"http://127.0.0.1:8000/api/elements/?format=json&page=2","previous":null,"results":[{"id":"859ef7c7-8f33-43cb-86b5-6c508be517bf","name":"Fluorine","alternate_name":null,"symbol":"F","atomic_number":9,"weight":18.998,"order_id":50},{"id":"55d98139-930e-4489-9ac7-7ae0548db09e","name":"Sulfur","alternate_name":"Sulphur","symbol":"S","atomic_number":16,"weight":32.065,"order_id":51},{"id":"75d410d5-965b-4bf2-abf8-43ee74c92ca0","name":"Chlorine","alternate_name":null,"symbol":"Cl","atomic_number":17,"weight":35.453,"order_id":52},{"id":"d6c2a44d-93c6-4d20-b146-8809a134dbc6","name":"Silver","alternate_name":null,"symbol":"Ag","atomic_number":47,"weight":107.868,"order_id":53},{"id":"36b4b05f-6ca8-4660-b420-98d141d30f72","name":"Aluminium","alternate_name":"Aluminum","symbol":"Al","atomic_number":13,"weight":26.9815,"order_id":54},{"id":"d3d7ca3d-43e3-40b7-83dc-2d2af3d4b730","name":"Americium","alternate_name":null,"symbol":"Am","atomic_number":95,"weight":243.0,"order_id":55},{"id":"228e0399-2cc7-479a-8a40-0b2593ded5cf","name":"Argon","alternate_name":null,"symbol":"Ar","atomic_number":18,"weight":39.948,"order_id":56},{"id":"09b298a1-8941-4d1e-9702-aa4231374067","name":"Arsenic","alternate_name":null,"symbol":"As","atomic_number":33,"weight":74.9216,"order_id":57},{"id":"183da14a-3c37-41ee-9b8c-dd3ca2c77977","name":"Astatine","alternate_name":null,"symbol":"At","atomic_number":85,"weight":210.0,"order_id":58},{"id":"0a3c0c06-ace6-4b80-897a-54ecbda08653","name":"Gold","alternate_name":null,"symbol":"Au","atomic_number":79,"weight":196.967,"order_id":59},{"id":"7f72063f-1555-4c7c-91ee-423a20d8361c","name":"Boron","alternate_name":null,"symbol":"B","atomic_number":5,"weight":10.81,"order_id":60},{"id":"0b7b5438-78c8-46fb-8622-f306eb853328","name":"Barium","alternate_name":null,"symbol":"Ba","atomic_number":56,"weight":137.327,"order_id":61},{"id":"1a3140b3-cf38-4267-bb0d-6024048deef2","name":"Beryllium","alternate_name":null,"symbol":"Be","atomic_number":4,"weight":9.012,"order_id":62},{"id":"d5c35420-dd61-4927-8a77-78ec39df5d29","name":"Bismuth","alternate_name":null,"symbol":"Bi","atomic_number":83,"weight":208.98,"order_id":63},{"id":"e846e46b-48da-470e-8754-d07322bdc964","name":"Berkelium","alternate_name":null,"symbol":"Bk","atomic_number":97,"weight":247.0,"order_id":64},{"id":"8969c219-c71e-4272-80fa-71135575066a","name":"Bromine","alternate_name":null,"symbol":"Br","atomic_number":35,"weight":79.904,"order_id":65},{"id":"13d249ce-a008-4e82-b2cc-fc31fdc13b07","name":"Carbon","alternate_name":null,"symbol":"C","atomic_number":6,"weight":12.0107,"order_id":66},{"id":"06b56acd-3964-4e41-a3a2-9355c5f97733","name":"Calcium","alternate_name":null,"symbol":"Ca","atomic_number":20,"weight":40.078,"order_id":67},{"id":"e677f13b-631b-4580-ab92-83cd869f9bf6","name":"Cadmium","alternate_name":null,"symbol":"Cd","atomic_number":48,"weight":112.41,"order_id":68},{"id":"b0106c9c-5fbf-4d57-b940-42e6d436fa0e","name":"Cerium","alternate_name":null,"symbol":"Ce","atomic_number":58,"weight":140.116,"order_id":69}]}