{"count":194,"next":"http://127.0.0.1:8000/api/minerals/?format=json&page=2","previous":null,"results":[{"id":"d753abe2-3fbe-453a-a494-17d2617c3d0b","name":"Bulk Rock","real_mineral":null},{"id":"39c5298e-2d09-412d-99f1-ac28ee243125","name":"Tectosilicates","real_mineral":"39c5298e-2d09-412d-99f1-ac28ee243125"},{"id":"698f5c8f-64d1-42ad-b066-7690cc07d26c","name":"Silica","real_mineral":"698f5c8f-64d1-42ad-b066-7690cc07d26c"},{"id":"de2dc2d4-595f-476d-87b6-685585735834","name":"Quartz","real_mineral":"de2dc2d4-595f-476d-87b6-685585735834"},{"id":"2bc8f8e5-3b53-47ac-a921-3f9da99a25f3","name":"Coesite","real_mineral":"2bc8f8e5-3b53-47ac-a921-3f9da99a25f3"},{"id":"11c13b90-c263-4794-b385-b763d522c940","name":"Tridymite","real_mineral":"11c13b90-c263-4794-b385-b763d522c940"},{"id":"03691ead-9faa-4a24-9368-1f076dda8a41","name":"Cristobalite","real_mineral":"03691ead-9faa-4a24-9368-1f076dda8a41"},{"id":"4903649c-bd20-4fc0-aa9d-0ea445a08a6d","name":"Feldspar","real_mineral":"4903649c-bd20-4fc0-aa9d-0ea445a08a6d"},{"id":"408e3646-2abf-4554-bdcf-0db87e8ee379","name":"Plagioclase","real_mineral":"408e3646-2abf-4554-bdcf-0db87e8ee379"},{"id":"1667732d-1e10-4e6b-9f45-8affa719cb33","name":"Albite","real_mineral":"1667732d-1e10-4e6b-9f45-8affa719cb33"},{"id":"5bc46b6a-9fe9-4177-af01-f6902e4f6115","name":"Oligoclase","real_mineral":"5bc46b6a-9fe9-4177-af01-f6902e4f6115"},{"id":"455a047e-4f1c-4105-97f4-9900fef2ea5b","name":"Andesine","real_mineral":"455a047e-4f1c-4105-97f4-9900fef2ea5b"},{"id":"6f29a52e-9581-42f0-8db6-82716219618c","name":"Labradorite","real_mineral":"6f29a52e-9581-42f0-8db6-82716219618c"},{"id":"545081cf-5930-4695-be2b-3b22f2012258","name":"Anorthite","real_mineral":"545081cf-5930-4695-be2b-3b22f2012258"},{"id":"801dc8d2-19f5-4ed2-85d6-76ec8a078576","name":"Alkali feldspar","real_mineral":"801dc8d2-19f5-4ed2-85d6-76ec8a078576"},{"id":"ddc192e6-100b-4aa2-8874-93320a58a441","name":"Orthoclase","real_mineral":"ddc192e6-100b-4aa2-8874-93320a58a441"},{"id":"34647097-a9f1-4cad-8ff7-a779312d025c","name":"Sanidine","real_mineral":"34647097-a9f1-4cad-8ff7-a779312d025c"},{"id":"b231c5bf-6140-4638-88e5-50517bfe412a","name":"Celsian","real_mineral":"b231c5bf-6140-4638-88e5-50517bfe412a"},{"id":"64600c06-78e5-4639-a245-50ef85f63e54","name":"Nepheline","real_mineral":"64600c06-78e5-4639-a245-50ef85f63e54"},{"id":"ae7dca3e-1a01-4380-8100-3cca529eb4fa","name":"Kalsilite","real_mineral":"ae7dca3e-1a01-4380-8100-3cca529eb4fa"}]}